%YAML 1.1
%TAG !u! tag:unity3d.com,2011:
--- !u!29 &1
OcclusionCullingSettings:
  m_ObjectHideFlags: 0
  serializedVersion: 2
  m_OcclusionBakeSettings:
    smallestOccluder: 5
    smallestHole: 0.25
    backfaceThreshold: 100
  m_SceneGUID: 00000000000000000000000000000000
  m_OcclusionCullingData: {fileID: 0}
--- !u!104 &2
RenderSettings:
  m_ObjectHideFlags: 0
  serializedVersion: 8
  m_Fog: 1
  m_FogColor: {r: 0.738, g: 0.7843138, b: 0.86274517, a: 1}
  m_FogMode: 3
  m_FogDensity: 0.007
  m_LinearFogStart: 10
  m_LinearFogEnd: 300
  m_AmbientSkyColor: {r: 0.212, g: 0.227, b: 0.259, a: 1}
  m_AmbientEquatorColor: {r: 0.114, g: 0.125, b: 0.133, a: 1}
  m_AmbientGroundColor: {r: 0.047, g: 0.043, b: 0.035, a: 1}
  m_AmbientIntensity: 1
  m_AmbientMode: 0
  m_SubtractiveShadowColor: {r: 0.42, g: 0.478, b: 0.627, a: 1}
  m_SkyboxMaterial: {fileID: 2100000, guid: b7b81ebbe36017a489fa9efb826111de, type: 2}
  m_HaloStrength: 0.5
  m_FlareStrength: 1
  m_FlareFadeSpeed: 3
  m_HaloTexture: {fileID: 0}
  m_SpotCookie: {fileID: 10001, guid: 0000000000000000e000000000000000, type: 0}
  m_DefaultReflectionMode: 0
  m_DefaultReflectionResolution: 128
  m_ReflectionBounces: 1
  m_ReflectionIntensity: 1
  m_CustomReflection: {fileID: 0}
  m_Sun: {fileID: 430593030}
  m_IndirectSpecularColor: {r: 0, g: 0, b: 0, a: 1}
--- !u!157 &3
LightmapSettings:
  m_ObjectHideFlags: 0
  serializedVersion: 11
  m_GIWorkflowMode: 0
  m_GISettings:
    serializedVersion: 2
    m_BounceScale: 1
    m_IndirectOutputScale: 1
    m_AlbedoBoost: 1
    m_TemporalCoherenceThreshold: 1
    m_EnvironmentLightingMode: 0
    m_EnableBakedLightmaps: 1
    m_EnableRealtimeLightmaps: 1
  m_LightmapEditorSettings:
    serializedVersion: 9
    m_Resolution: 2
    m_BakeResolution: 40
    m_TextureWidth: 1024
    m_TextureHeight: 1024
    m_AO: 0
    m_AOMaxDistance: 1
    m_CompAOExponent: 0
    m_CompAOExponentDirect: 0
    m_Padding: 2
    m_LightmapParameters: {fileID: 0}
    m_LightmapsBakeMode: 1
    m_TextureCompression: 1
    m_FinalGather: 0
    m_FinalGatherFiltering: 1
    m_FinalGatherRayCount: 1024
    m_ReflectionCompression: 2
    m_MixedBakeMode: 1
    m_BakeBackend: 0
    m_PVRSampling: 1
    m_PVRDirectSampleCount: 32
    m_PVRSampleCount: 500
    m_PVRBounces: 2
    m_PVRFilterTypeDirect: 0
    m_PVRFilterTypeIndirect: 0
    m_PVRFilterTypeAO: 0
    m_PVRFilteringMode: 0
    m_PVRCulling: 1
    m_PVRFilteringGaussRadiusDirect: 1
    m_PVRFilteringGaussRadiusIndirect: 5
    m_PVRFilteringGaussRadiusAO: 2
    m_PVRFilteringAtrousPositionSigmaDirect: 0.5
    m_PVRFilteringAtrousPositionSigmaIndirect: 2
    m_PVRFilteringAtrousPositionSigmaAO: 1
  m_LightingDataAsset: {fileID: 0}
  m_UseShadowmask: 0
--- !u!196 &4
NavMeshSettings:
  serializedVersion: 2
  m_ObjectHideFlags: 0
  m_BuildSettings:
    serializedVersion: 2
    agentTypeID: 0
    agentRadius: 0.5
    agentHeight: 2
    agentSlope: 45
    agentClimb: 0.4
    ledgeDropHeight: 0
    maxJumpAcrossDistance: 0
    minRegionArea: 2
    manualCellSize: 0
    cellSize: 0.16666667
    manualTileSize: 0
    tileSize: 256
    accuratePlacement: 0
    debug:
      m_Flags: 0
  m_NavMeshData: {fileID: 0}
--- !u!1001 &373689373
Prefab:
  m_ObjectHideFlags: 0
  serializedVersion: 2
  m_Modification:
    m_TransformParent: {fileID: 960885651}
    m_Modifications:
    - target: {fileID: 400002, guid: edc40406f07f9cf4990807aa8b0fc368, type: 3}
      propertyPath: m_LocalPosition.x
      value: -0.005
      objectReference: {fileID: 0}
    - target: {fileID: 400002, guid: edc40406f07f9cf4990807aa8b0fc368, type: 3}
      propertyPath: m_LocalPosition.y
      value: 0.04857417
      objectReference: {fileID: 0}
    - target: {fileID: 400002, guid: edc40406f07f9cf4990807aa8b0fc368, type: 3}
      propertyPath: m_LocalPosition.z
      value: -0.005
      objectReference: {fileID: 0}
    - target: {fileID: 400002, guid: edc40406f07f9cf4990807aa8b0fc368, type: 3}
      propertyPath: m_LocalRotation.x
      value: -0.7071068
      objectReference: {fileID: 0}
    - target: {fileID: 400002, guid: edc40406f07f9cf4990807aa8b0fc368, type: 3}
      propertyPath: m_LocalRotation.y
      value: 0
      objectReference: {fileID: 0}
    - target: {fileID: 400002, guid: edc40406f07f9cf4990807aa8b0fc368, type: 3}
      propertyPath: m_LocalRotation.z
      value: -0
      objectReference: {fileID: 0}
    - target: {fileID: 400002, guid: edc40406f07f9cf4990807aa8b0fc368, type: 3}
      propertyPath: m_LocalRotation.w
      value: 0.7071068
      objectReference: {fileID: 0}
    - target: {fileID: 400002, guid: edc40406f07f9cf4990807aa8b0fc368, type: 3}
      propertyPath: m_RootOrder
      value: 2
      objectReference: {fileID: 0}
    - target: {fileID: 400000, guid: edc40406f07f9cf4990807aa8b0fc368, type: 3}
      propertyPath: m_RootOrder
      value: 2
      objectReference: {fileID: 0}
    - target: {fileID: 400000, guid: edc40406f07f9cf4990807aa8b0fc368, type: 3}
      propertyPath: m_LocalScale.x
      value: 2.6878128
      objectReference: {fileID: 0}
    - target: {fileID: 400000, guid: edc40406f07f9cf4990807aa8b0fc368, type: 3}
      propertyPath: m_LocalScale.y
      value: 2.060694
      objectReference: {fileID: 0}
    - target: {fileID: 400000, guid: edc40406f07f9cf4990807aa8b0fc368, type: 3}
      propertyPath: m_LocalScale.z
      value: 5.5456195
      objectReference: {fileID: 0}
    - target: {fileID: 100000, guid: edc40406f07f9cf4990807aa8b0fc368, type: 3}
      propertyPath: m_Name
      value: mountain_Snow_000 (7)
      objectReference: {fileID: 0}
    - target: {fileID: 400000, guid: edc40406f07f9cf4990807aa8b0fc368, type: 3}
      propertyPath: m_LocalPosition.z
      value: 32.9
      objectReference: {fileID: 0}
    - target: {fileID: 400000, guid: edc40406f07f9cf4990807aa8b0fc368, type: 3}
      propertyPath: m_LocalRotation.y
      value: 0.8983568
      objectReference: {fileID: 0}
    - target: {fileID: 400000, guid: edc40406f07f9cf4990807aa8b0fc368, type: 3}
      propertyPath: m_LocalRotation.w
      value: -0.43926653
      objectReference: {fileID: 0}
    - target: {fileID: 400000, guid: edc40406f07f9cf4990807aa8b0fc368, type: 3}
      propertyPath: m_LocalPosition.x
      value: -110.3
      objectReference: {fileID: 0}
    - target: {fileID: 400000, guid: edc40406f07f9cf4990807aa8b0fc368, type: 3}
      propertyPath: m_LocalPosition.y
      value: -6
      objectReference: {fileID: 0}
    - target: {fileID: 2300000, guid: edc40406f07f9cf4990807aa8b0fc368, type: 3}
      propertyPath: m_Materials.Array.data[0]
      value: 
      objectReference: {fileID: 2100000, guid: 0060a88cd6252a146aeb6a9652d03869, type: 2}
    m_RemovedComponents: []
  m_ParentPrefab: {fileID: 100100000, guid: edc40406f07f9cf4990807aa8b0fc368, type: 3}
  m_RootGameObject: {fileID: 2112476525}
  m_IsPrefabParent: 0
--- !u!4 &373689374
Transform:
  m_ObjectHideFlags: 0
  m_PrefabParentObject: {fileID: 400000, guid: edc40406f07f9cf4990807aa8b0fc368, type: 3}
  m_PrefabInternal: {fileID: 373689373}
  m_GameObject: {fileID: 2112476525}
  m_LocalRotation: {x: 0, y: 0.8983568, z: -0, w: -0.43926653}
  m_LocalPosition: {x: -110.3, y: -6, z: 32.9}
  m_LocalScale: {x: 2.6878128, y: 2.060694, z: 5.5456195}
  m_Children: []
  m_Father: {fileID: 960885651}
  m_RootOrder: 2
  m_LocalEulerAnglesHint: {x: 0, y: 0, z: 0}
--- !u!1 &430593029
GameObject:
  m_ObjectHideFlags: 0
  m_PrefabParentObject: {fileID: 0}
  m_PrefabInternal: {fileID: 0}
  serializedVersion: 5
  m_Component:
  - component: {fileID: 430593031}
  - component: {fileID: 430593030}
  m_Layer: 0
  m_Name: Directional Light
  m_TagString: Untagged
  m_Icon: {fileID: 0}
  m_NavMeshLayer: 0
  m_StaticEditorFlags: 0
  m_IsActive: 1
--- !u!108 &430593030
Light:
  m_ObjectHideFlags: 0
  m_PrefabParentObject: {fileID: 0}
  m_PrefabInternal: {fileID: 0}
  m_GameObject: {fileID: 430593029}
  m_Enabled: 1
  serializedVersion: 8
  m_Type: 1
  m_Color: {r: 1, g: 0.95686275, b: 0.8392157, a: 1}
  m_Intensity: 0.77
  m_Range: 10
  m_SpotAngle: 30
  m_CookieSize: 10
  m_Shadows:
    m_Type: 2
    m_Resolution: -1
    m_CustomResolution: -1
    m_Strength: 1
    m_Bias: 0.065
    m_NormalBias: 0.23
    m_NearPlane: 0.1
  m_Cookie: {fileID: 0}
  m_DrawHalo: 0
  m_Flare: {fileID: 0}
  m_RenderMode: 0
  m_CullingMask:
    serializedVersion: 2
    m_Bits: 4294967295
  m_Lightmapping: 4
  m_AreaSize: {x: 1, y: 1}
  m_BounceIntensity: 1
  m_ColorTemperature: 6570
  m_UseColorTemperature: 0
  m_ShadowRadius: 0
  m_ShadowAngle: 0
--- !u!4 &430593031
Transform:
  m_ObjectHideFlags: 0
  m_PrefabParentObject: {fileID: 0}
  m_PrefabInternal: {fileID: 0}
  m_GameObject: {fileID: 430593029}
  m_LocalRotation: {x: 0.09035043, y: -0.6106397, z: 0.048050497, w: 0.7852688}
  m_LocalPosition: {x: 9, y: 8, z: -12.54}
  m_LocalScale: {x: 10, y: 10, z: 10}
  m_Children: []
  m_Father: {fileID: 0}
  m_RootOrder: 1
  m_LocalEulerAnglesHint: {x: 0, y: 0, z: 0}
--- !u!1001 &511012923
Prefab:
  m_ObjectHideFlags: 0
  serializedVersion: 2
  m_Modification:
    m_TransformParent: {fileID: 960885651}
    m_Modifications:
    - target: {fileID: 400002, guid: edc40406f07f9cf4990807aa8b0fc368, type: 3}
      propertyPath: m_LocalPosition.x
      value: -0.005
      objectReference: {fileID: 0}
    - target: {fileID: 400002, guid: edc40406f07f9cf4990807aa8b0fc368, type: 3}
      propertyPath: m_LocalPosition.y
      value: 0.04857417
      objectReference: {fileID: 0}
    - target: {fileID: 400002, guid: edc40406f07f9cf4990807aa8b0fc368, type: 3}
      propertyPath: m_LocalPosition.z
      value: -0.005
      objectReference: {fileID: 0}
    - target: {fileID: 400002, guid: edc40406f07f9cf4990807aa8b0fc368, type: 3}
      propertyPath: m_LocalRotation.x
      value: -0.7071068
      objectReference: {fileID: 0}
    - target: {fileID: 400002, guid: edc40406f07f9cf4990807aa8b0fc368, type: 3}
      propertyPath: m_LocalRotation.y
      value: 0
      objectReference: {fileID: 0}
    - target: {fileID: 400002, guid: edc40406f07f9cf4990807aa8b0fc368, type: 3}
      propertyPath: m_LocalRotation.z
      value: -0
      objectReference: {fileID: 0}
    - target: {fileID: 400002, guid: edc40406f07f9cf4990807aa8b0fc368, type: 3}
      propertyPath: m_LocalRotation.w
      value: 0.7071068
      objectReference: {fileID: 0}
    - target: {fileID: 400002, guid: edc40406f07f9cf4990807aa8b0fc368, type: 3}
      propertyPath: m_RootOrder
      value: 2
      objectReference: {fileID: 0}
    - target: {fileID: 400000, guid: edc40406f07f9cf4990807aa8b0fc368, type: 3}
      propertyPath: m_RootOrder
      value: 0
      objectReference: {fileID: 0}
    - target: {fileID: 400000, guid: edc40406f07f9cf4990807aa8b0fc368, type: 3}
      propertyPath: m_LocalScale.x
      value: 2.271209
      objectReference: {fileID: 0}
    - target: {fileID: 400000, guid: edc40406f07f9cf4990807aa8b0fc368, type: 3}
      propertyPath: m_LocalScale.y
      value: 1.9985867
      objectReference: {fileID: 0}
    - target: {fileID: 400000, guid: edc40406f07f9cf4990807aa8b0fc368, type: 3}
      propertyPath: m_LocalScale.z
      value: 1.7983102
      objectReference: {fileID: 0}
    - target: {fileID: 100000, guid: edc40406f07f9cf4990807aa8b0fc368, type: 3}
      propertyPath: m_Name
      value: mountain_Snow_000 (5)
      objectReference: {fileID: 0}
    - target: {fileID: 400000, guid: edc40406f07f9cf4990807aa8b0fc368, type: 3}
      propertyPath: m_LocalPosition.z
      value: 7.9
      objectReference: {fileID: 0}
    - target: {fileID: 400000, guid: edc40406f07f9cf4990807aa8b0fc368, type: 3}
      propertyPath: m_LocalRotation.y
      value: 0.6397222
      objectReference: {fileID: 0}
    - target: {fileID: 400000, guid: edc40406f07f9cf4990807aa8b0fc368, type: 3}
      propertyPath: m_LocalRotation.w
      value: 0.7686062
      objectReference: {fileID: 0}
    - target: {fileID: 400000, guid: edc40406f07f9cf4990807aa8b0fc368, type: 3}
      propertyPath: m_LocalPosition.x
      value: -84.7
      objectReference: {fileID: 0}
    - target: {fileID: 400000, guid: edc40406f07f9cf4990807aa8b0fc368, type: 3}
      propertyPath: m_LocalPosition.y
      value: -6
      objectReference: {fileID: 0}
    - target: {fileID: 2300000, guid: edc40406f07f9cf4990807aa8b0fc368, type: 3}
      propertyPath: m_Materials.Array.data[0]
      value: 
      objectReference: {fileID: 2100000, guid: 0060a88cd6252a146aeb6a9652d03869, type: 2}
    m_RemovedComponents: []
  m_ParentPrefab: {fileID: 100100000, guid: edc40406f07f9cf4990807aa8b0fc368, type: 3}
  m_RootGameObject: {fileID: 1473312770}
  m_IsPrefabParent: 0
--- !u!4 &511012924
Transform:
  m_ObjectHideFlags: 0
  m_PrefabParentObject: {fileID: 400000, guid: edc40406f07f9cf4990807aa8b0fc368, type: 3}
  m_PrefabInternal: {fileID: 511012923}
  m_GameObject: {fileID: 1473312770}
  m_LocalRotation: {x: 0, y: 0.6397222, z: -0, w: 0.7686062}
  m_LocalPosition: {x: -84.7, y: -6, z: 7.9}
  m_LocalScale: {x: 2.271209, y: 1.9985867, z: 1.7983102}
  m_Children: []
  m_Father: {fileID: 960885651}
  m_RootOrder: 0
  m_LocalEulerAnglesHint: {x: 0, y: 0, z: 0}
--- !u!1 &576906619
GameObject:
  m_ObjectHideFlags: 0
  m_PrefabParentObject: {fileID: 100000, guid: edc40406f07f9cf4990807aa8b0fc368, type: 3}
  m_PrefabInternal: {fileID: 2120409049}
  serializedVersion: 5
  m_Component:
  - component: {fileID: 2120409050}
  - component: {fileID: 576906621}
  - component: {fileID: 576906620}
  m_Layer: 0
  m_Name: mountain_Snow_000 (3)
  m_TagString: Untagged
  m_Icon: {fileID: 0}
  m_NavMeshLayer: 0
  m_StaticEditorFlags: 0
  m_IsActive: 1
--- !u!23 &576906620
MeshRenderer:
  m_ObjectHideFlags: 0
  m_PrefabParentObject: {fileID: 2300000, guid: edc40406f07f9cf4990807aa8b0fc368,
    type: 3}
  m_PrefabInternal: {fileID: 2120409049}
  m_GameObject: {fileID: 576906619}
  m_Enabled: 1
  m_CastShadows: 1
  m_ReceiveShadows: 1
  m_DynamicOccludee: 1
  m_MotionVectors: 1
  m_LightProbeUsage: 1
  m_ReflectionProbeUsage: 1
  m_Materials:
  - {fileID: 2100000, guid: 0060a88cd6252a146aeb6a9652d03869, type: 2}
  m_StaticBatchInfo:
    firstSubMesh: 0
    subMeshCount: 0
  m_StaticBatchRoot: {fileID: 0}
  m_ProbeAnchor: {fileID: 0}
  m_LightProbeVolumeOverride: {fileID: 0}
  m_ScaleInLightmap: 1
  m_PreserveUVs: 0
  m_IgnoreNormalsForChartDetection: 0
  m_ImportantGI: 0
  m_StitchLightmapSeams: 0
  m_SelectedEditorRenderState: 3
  m_MinimumChartSize: 4
  m_AutoUVMaxDistance: 0.5
  m_AutoUVMaxAngle: 89
  m_LightmapParameters: {fileID: 0}
  m_SortingLayerID: 0
  m_SortingLayer: 0
  m_SortingOrder: 0
--- !u!33 &576906621
MeshFilter:
  m_ObjectHideFlags: 0
  m_PrefabParentObject: {fileID: 3300000, guid: edc40406f07f9cf4990807aa8b0fc368,
    type: 3}
  m_PrefabInternal: {fileID: 2120409049}
  m_GameObject: {fileID: 576906619}
  m_Mesh: {fileID: 4300000, guid: edc40406f07f9cf4990807aa8b0fc368, type: 3}
--- !u!1001 &669966748
Prefab:
  m_ObjectHideFlags: 0
  serializedVersion: 2
  m_Modification:
    m_TransformParent: {fileID: 960885651}
    m_Modifications:
    - target: {fileID: 400002, guid: edc40406f07f9cf4990807aa8b0fc368, type: 3}
      propertyPath: m_LocalPosition.x
      value: -0.005
      objectReference: {fileID: 0}
    - target: {fileID: 400002, guid: edc40406f07f9cf4990807aa8b0fc368, type: 3}
      propertyPath: m_LocalPosition.y
      value: 0.04857417
      objectReference: {fileID: 0}
    - target: {fileID: 400002, guid: edc40406f07f9cf4990807aa8b0fc368, type: 3}
      propertyPath: m_LocalPosition.z
      value: -0.005
      objectReference: {fileID: 0}
    - target: {fileID: 400002, guid: edc40406f07f9cf4990807aa8b0fc368, type: 3}
      propertyPath: m_LocalRotation.x
      value: -0.7071068
      objectReference: {fileID: 0}
    - target: {fileID: 400002, guid: edc40406f07f9cf4990807aa8b0fc368, type: 3}
      propertyPath: m_LocalRotation.y
      value: 0
      objectReference: {fileID: 0}
    - target: {fileID: 400002, guid: edc40406f07f9cf4990807aa8b0fc368, type: 3}
      propertyPath: m_LocalRotation.z
      value: -0
      objectReference: {fileID: 0}
    - target: {fileID: 400002, guid: edc40406f07f9cf4990807aa8b0fc368, type: 3}
      propertyPath: m_LocalRotation.w
      value: 0.7071068
      objectReference: {fileID: 0}
    - target: {fileID: 400002, guid: edc40406f07f9cf4990807aa8b0fc368, type: 3}
      propertyPath: m_RootOrder
      value: 2
      objectReference: {fileID: 0}
    - target: {fileID: 400000, guid: edc40406f07f9cf4990807aa8b0fc368, type: 3}
      propertyPath: m_RootOrder
      value: 7
      objectReference: {fileID: 0}
    - target: {fileID: 400000, guid: edc40406f07f9cf4990807aa8b0fc368, type: 3}
      propertyPath: m_LocalScale.x
      value: 1.6766441
      objectReference: {fileID: 0}
    - target: {fileID: 400000, guid: edc40406f07f9cf4990807aa8b0fc368, type: 3}
      propertyPath: m_LocalScale.y
      value: 1.6766441
      objectReference: {fileID: 0}
    - target: {fileID: 400000, guid: edc40406f07f9cf4990807aa8b0fc368, type: 3}
      propertyPath: m_LocalScale.z
      value: 1.676644
      objectReference: {fileID: 0}
    - target: {fileID: 100000, guid: edc40406f07f9cf4990807aa8b0fc368, type: 3}
      propertyPath: m_Name
      value: mountain_Snow_000 (1)
      objectReference: {fileID: 0}
    - target: {fileID: 400000, guid: edc40406f07f9cf4990807aa8b0fc368, type: 3}
      propertyPath: m_LocalPosition.z
      value: 56.8
      objectReference: {fileID: 0}
    - target: {fileID: 400000, guid: edc40406f07f9cf4990807aa8b0fc368, type: 3}
      propertyPath: m_LocalRotation.y
      value: -0.9802005
      objectReference: {fileID: 0}
    - target: {fileID: 400000, guid: edc40406f07f9cf4990807aa8b0fc368, type: 3}
      propertyPath: m_LocalRotation.w
      value: -0.19800764
      objectReference: {fileID: 0}
    - target: {fileID: 400000, guid: edc40406f07f9cf4990807aa8b0fc368, type: 3}
      propertyPath: m_LocalPosition.x
      value: 8.9
      objectReference: {fileID: 0}
    - target: {fileID: 400000, guid: edc40406f07f9cf4990807aa8b0fc368, type: 3}
      propertyPath: m_LocalPosition.y
      value: -2.8
      objectReference: {fileID: 0}
    - target: {fileID: 2300000, guid: edc40406f07f9cf4990807aa8b0fc368, type: 3}
      propertyPath: m_Materials.Array.data[0]
      value: 
      objectReference: {fileID: 2100000, guid: 0060a88cd6252a146aeb6a9652d03869, type: 2}
    m_RemovedComponents: []
  m_ParentPrefab: {fileID: 100100000, guid: edc40406f07f9cf4990807aa8b0fc368, type: 3}
  m_RootGameObject: {fileID: 1066940258}
  m_IsPrefabParent: 0
--- !u!4 &669966749
Transform:
  m_ObjectHideFlags: 0
  m_PrefabParentObject: {fileID: 400000, guid: edc40406f07f9cf4990807aa8b0fc368, type: 3}
  m_PrefabInternal: {fileID: 669966748}
  m_GameObject: {fileID: 1066940258}
  m_LocalRotation: {x: 0, y: -0.9802005, z: -0, w: -0.19800764}
  m_LocalPosition: {x: 8.9, y: -2.8, z: 56.8}
  m_LocalScale: {x: 1.6766441, y: 1.6766441, z: 1.676644}
  m_Children: []
  m_Father: {fileID: 960885651}
  m_RootOrder: 7
  m_LocalEulerAnglesHint: {x: 0, y: 0, z: 0}
--- !u!1 &812843415
GameObject:
  m_ObjectHideFlags: 0
  m_PrefabParentObject: {fileID: 0}
  m_PrefabInternal: {fileID: 0}
  serializedVersion: 5
  m_Component:
  - component: {fileID: 812843420}
  - component: {fileID: 812843419}
  - component: {fileID: 812843418}
  - component: {fileID: 812843417}
  - component: {fileID: 812843416}
  m_Layer: 0
  m_Name: Main Camera
  m_TagString: MainCamera
  m_Icon: {fileID: 0}
  m_NavMeshLayer: 0
  m_StaticEditorFlags: 0
  m_IsActive: 1
--- !u!81 &812843416
AudioListener:
  m_ObjectHideFlags: 0
  m_PrefabParentObject: {fileID: 0}
  m_PrefabInternal: {fileID: 0}
  m_GameObject: {fileID: 812843415}
  m_Enabled: 1
--- !u!124 &812843417
Behaviour:
  m_ObjectHideFlags: 0
  m_PrefabParentObject: {fileID: 0}
  m_PrefabInternal: {fileID: 0}
  m_GameObject: {fileID: 812843415}
  m_Enabled: 1
--- !u!92 &812843418
Behaviour:
  m_ObjectHideFlags: 0
  m_PrefabParentObject: {fileID: 0}
  m_PrefabInternal: {fileID: 0}
  m_GameObject: {fileID: 812843415}
  m_Enabled: 1
--- !u!20 &812843419
Camera:
  m_ObjectHideFlags: 0
  m_PrefabParentObject: {fileID: 0}
  m_PrefabInternal: {fileID: 0}
  m_GameObject: {fileID: 812843415}
  m_Enabled: 1
  serializedVersion: 2
  m_ClearFlags: 1
  m_BackGroundColor: {r: 0, g: 0, b: 0, a: 0.019607844}
  m_NormalizedViewPortRect:
    serializedVersion: 2
    x: 0
    y: 0
    width: 1
    height: 1
  near clip plane: 0.3
  far clip plane: 1000
  field of view: 61.2
  orthographic: 0
  orthographic size: 5
  m_Depth: -1
  m_CullingMask:
    serializedVersion: 2
    m_Bits: 4294967295
  m_RenderingPath: -1
  m_TargetTexture: {fileID: 0}
  m_TargetDisplay: 0
  m_TargetEye: 3
  m_HDR: 0
  m_AllowMSAA: 1
  m_ForceIntoRT: 0
  m_OcclusionCulling: 1
  m_StereoConvergence: 10
  m_StereoSeparation: 0.022
--- !u!4 &812843420
Transform:
  m_ObjectHideFlags: 0
  m_PrefabParentObject: {fileID: 0}
  m_PrefabInternal: {fileID: 0}
  m_GameObject: {fileID: 812843415}
  m_LocalRotation: {x: -0.014593266, y: -0.38643906, z: -0.03480061, w: 0.92154264}
  m_LocalPosition: {x: -7.3, y: 9.7, z: -26.8}
  m_LocalScale: {x: 1, y: 1, z: 1}
  m_Children: []
  m_Father: {fileID: 0}
  m_RootOrder: 0
  m_LocalEulerAnglesHint: {x: 0, y: 0, z: 0}
--- !u!1 &819410391
GameObject:
  m_ObjectHideFlags: 0
  m_PrefabParentObject: {fileID: 100000, guid: edc40406f07f9cf4990807aa8b0fc368, type: 3}
  m_PrefabInternal: {fileID: 1313315438}
  serializedVersion: 5
  m_Component:
  - component: {fileID: 1313315439}
  - component: {fileID: 819410393}
  - component: {fileID: 819410392}
  m_Layer: 0
  m_Name: mountain_Snow_000 (6)
  m_TagString: Untagged
  m_Icon: {fileID: 0}
  m_NavMeshLayer: 0
  m_StaticEditorFlags: 0
  m_IsActive: 1
--- !u!23 &819410392
MeshRenderer:
  m_ObjectHideFlags: 0
  m_PrefabParentObject: {fileID: 2300000, guid: edc40406f07f9cf4990807aa8b0fc368,
    type: 3}
  m_PrefabInternal: {fileID: 1313315438}
  m_GameObject: {fileID: 819410391}
  m_Enabled: 1
  m_CastShadows: 1
  m_ReceiveShadows: 1
  m_DynamicOccludee: 1
  m_MotionVectors: 1
  m_LightProbeUsage: 1
  m_ReflectionProbeUsage: 1
  m_Materials:
  - {fileID: 2100000, guid: 0060a88cd6252a146aeb6a9652d03869, type: 2}
  m_StaticBatchInfo:
    firstSubMesh: 0
    subMeshCount: 0
  m_StaticBatchRoot: {fileID: 0}
  m_ProbeAnchor: {fileID: 0}
  m_LightProbeVolumeOverride: {fileID: 0}
  m_ScaleInLightmap: 1
  m_PreserveUVs: 0
  m_IgnoreNormalsForChartDetection: 0
  m_ImportantGI: 0
  m_StitchLightmapSeams: 0
  m_SelectedEditorRenderState: 3
  m_MinimumChartSize: 4
  m_AutoUVMaxDistance: 0.5
  m_AutoUVMaxAngle: 89
  m_LightmapParameters: {fileID: 0}
  m_SortingLayerID: 0
  m_SortingLayer: 0
  m_SortingOrder: 0
--- !u!33 &819410393
MeshFilter:
  m_ObjectHideFlags: 0
  m_PrefabParentObject: {fileID: 3300000, guid: edc40406f07f9cf4990807aa8b0fc368,
    type: 3}
  m_PrefabInternal: {fileID: 1313315438}
  m_GameObject: {fileID: 819410391}
  m_Mesh: {fileID: 4300000, guid: edc40406f07f9cf4990807aa8b0fc368, type: 3}
--- !u!1 &960885650
GameObject:
  m_ObjectHideFlags: 0
  m_PrefabParentObject: {fileID: 0}
  m_PrefabInternal: {fileID: 0}
  serializedVersion: 5
  m_Component:
  - component: {fileID: 960885651}
  m_Layer: 0
  m_Name: Mountains
  m_TagString: Untagged
  m_Icon: {fileID: 0}
  m_NavMeshLayer: 0
  m_StaticEditorFlags: 0
  m_IsActive: 1
--- !u!4 &960885651
Transform:
  m_ObjectHideFlags: 0
  m_PrefabParentObject: {fileID: 0}
  m_PrefabInternal: {fileID: 0}
  m_GameObject: {fileID: 960885650}
  m_LocalRotation: {x: 0, y: 0, z: 0, w: 1}
  m_LocalPosition: {x: -27.396818, y: 5.951004, z: -16.985336}
  m_LocalScale: {x: 1, y: 1, z: 1}
  m_Children:
  - {fileID: 511012924}
  - {fileID: 2121501755}
  - {fileID: 373689374}
  - {fileID: 2120409050}
  - {fileID: 1482819117}
  - {fileID: 1313315439}
  - {fileID: 1269988727}
  - {fileID: 669966749}
  m_Father: {fileID: 0}
  m_RootOrder: 3
  m_LocalEulerAnglesHint: {x: 0, y: 0, z: 0}
--- !u!1 &1066940258
GameObject:
  m_ObjectHideFlags: 0
  m_PrefabParentObject: {fileID: 100000, guid: edc40406f07f9cf4990807aa8b0fc368, type: 3}
  m_PrefabInternal: {fileID: 669966748}
  serializedVersion: 5
  m_Component:
  - component: {fileID: 669966749}
  - component: {fileID: 1066940260}
  - component: {fileID: 1066940259}
  m_Layer: 0
  m_Name: mountain_Snow_000 (1)
  m_TagString: Untagged
  m_Icon: {fileID: 0}
  m_NavMeshLayer: 0
  m_StaticEditorFlags: 0
  m_IsActive: 1
--- !u!23 &1066940259
MeshRenderer:
  m_ObjectHideFlags: 0
  m_PrefabParentObject: {fileID: 2300000, guid: edc40406f07f9cf4990807aa8b0fc368,
    type: 3}
  m_PrefabInternal: {fileID: 669966748}
  m_GameObject: {fileID: 1066940258}
  m_Enabled: 1
  m_CastShadows: 1
  m_ReceiveShadows: 1
  m_DynamicOccludee: 1
  m_MotionVectors: 1
  m_LightProbeUsage: 1
  m_ReflectionProbeUsage: 1
  m_Materials:
  - {fileID: 2100000, guid: 0060a88cd6252a146aeb6a9652d03869, type: 2}
  m_StaticBatchInfo:
    firstSubMesh: 0
    subMeshCount: 0
  m_StaticBatchRoot: {fileID: 0}
  m_ProbeAnchor: {fileID: 0}
  m_LightProbeVolumeOverride: {fileID: 0}
  m_ScaleInLightmap: 1
  m_PreserveUVs: 0
  m_IgnoreNormalsForChartDetection: 0
  m_ImportantGI: 0
  m_StitchLightmapSeams: 0
  m_SelectedEditorRenderState: 3
  m_MinimumChartSize: 4
  m_AutoUVMaxDistance: 0.5
  m_AutoUVMaxAngle: 89
  m_LightmapParameters: {fileID: 0}
  m_SortingLayerID: 0
  m_SortingLayer: 0
  m_SortingOrder: 0
--- !u!33 &1066940260
MeshFilter:
  m_ObjectHideFlags: 0
  m_PrefabParentObject: {fileID: 3300000, guid: edc40406f07f9cf4990807aa8b0fc368,
    type: 3}
  m_PrefabInternal: {fileID: 669966748}
  m_GameObject: {fileID: 1066940258}
  m_Mesh: {fileID: 4300000, guid: edc40406f07f9cf4990807aa8b0fc368, type: 3}
--- !u!1001 &1269988726
Prefab:
  m_ObjectHideFlags: 0
  serializedVersion: 2
  m_Modification:
    m_TransformParent: {fileID: 960885651}
    m_Modifications:
    - target: {fileID: 400002, guid: edc40406f07f9cf4990807aa8b0fc368, type: 3}
      propertyPath: m_LocalPosition.x
      value: -0.005
      objectReference: {fileID: 0}
    - target: {fileID: 400002, guid: edc40406f07f9cf4990807aa8b0fc368, type: 3}
      propertyPath: m_LocalPosition.y
      value: 0.04857417
      objectReference: {fileID: 0}
    - target: {fileID: 400002, guid: edc40406f07f9cf4990807aa8b0fc368, type: 3}
      propertyPath: m_LocalPosition.z
      value: -0.005
      objectReference: {fileID: 0}
    - target: {fileID: 400002, guid: edc40406f07f9cf4990807aa8b0fc368, type: 3}
      propertyPath: m_LocalRotation.x
      value: -0.7071068
      objectReference: {fileID: 0}
    - target: {fileID: 400002, guid: edc40406f07f9cf4990807aa8b0fc368, type: 3}
      propertyPath: m_LocalRotation.y
      value: 0
      objectReference: {fileID: 0}
    - target: {fileID: 400002, guid: edc40406f07f9cf4990807aa8b0fc368, type: 3}
      propertyPath: m_LocalRotation.z
      value: -0
      objectReference: {fileID: 0}
    - target: {fileID: 400002, guid: edc40406f07f9cf4990807aa8b0fc368, type: 3}
      propertyPath: m_LocalRotation.w
      value: 0.7071068
      objectReference: {fileID: 0}
    - target: {fileID: 400002, guid: edc40406f07f9cf4990807aa8b0fc368, type: 3}
      propertyPath: m_RootOrder
      value: 2
      objectReference: {fileID: 0}
    - target: {fileID: 400000, guid: edc40406f07f9cf4990807aa8b0fc368, type: 3}
      propertyPath: m_RootOrder
      value: 6
      objectReference: {fileID: 0}
    - target: {fileID: 400000, guid: edc40406f07f9cf4990807aa8b0fc368, type: 3}
      propertyPath: m_LocalScale.x
      value: 3.0789514
      objectReference: {fileID: 0}
    - target: {fileID: 400000, guid: edc40406f07f9cf4990807aa8b0fc368, type: 3}
      propertyPath: m_LocalScale.y
      value: 3.078954
      objectReference: {fileID: 0}
    - target: {fileID: 400000, guid: edc40406f07f9cf4990807aa8b0fc368, type: 3}
      propertyPath: m_LocalScale.z
      value: 3.4811392
      objectReference: {fileID: 0}
    - target: {fileID: 100000, guid: edc40406f07f9cf4990807aa8b0fc368, type: 3}
      propertyPath: m_Name
      value: mountain_Snow_000 (8)
      objectReference: {fileID: 0}
    - target: {fileID: 400000, guid: edc40406f07f9cf4990807aa8b0fc368, type: 3}
      propertyPath: m_LocalPosition.z
      value: 7.4
      objectReference: {fileID: 0}
    - target: {fileID: 400000, guid: edc40406f07f9cf4990807aa8b0fc368, type: 3}
      propertyPath: m_LocalRotation.y
      value: -0.8699443
      objectReference: {fileID: 0}
    - target: {fileID: 400000, guid: edc40406f07f9cf4990807aa8b0fc368, type: 3}
      propertyPath: m_LocalRotation.w
      value: 0.49315006
      objectReference: {fileID: 0}
    - target: {fileID: 400000, guid: edc40406f07f9cf4990807aa8b0fc368, type: 3}
      propertyPath: m_LocalPosition.x
      value: -88.1
      objectReference: {fileID: 0}
    - target: {fileID: 400000, guid: edc40406f07f9cf4990807aa8b0fc368, type: 3}
      propertyPath: m_LocalPosition.y
      value: -5.5
      objectReference: {fileID: 0}
    - target: {fileID: 2300000, guid: edc40406f07f9cf4990807aa8b0fc368, type: 3}
      propertyPath: m_Materials.Array.data[0]
      value: 
      objectReference: {fileID: 2100000, guid: 0060a88cd6252a146aeb6a9652d03869, type: 2}
    m_RemovedComponents: []
  m_ParentPrefab: {fileID: 100100000, guid: edc40406f07f9cf4990807aa8b0fc368, type: 3}
  m_RootGameObject: {fileID: 1448161466}
  m_IsPrefabParent: 0
--- !u!4 &1269988727
Transform:
  m_ObjectHideFlags: 0
  m_PrefabParentObject: {fileID: 400000, guid: edc40406f07f9cf4990807aa8b0fc368, type: 3}
  m_PrefabInternal: {fileID: 1269988726}
  m_GameObject: {fileID: 1448161466}
  m_LocalRotation: {x: 0, y: -0.8699443, z: -0, w: 0.49315006}
  m_LocalPosition: {x: -88.1, y: -5.5, z: 7.4}
  m_LocalScale: {x: 3.0789514, y: 3.078954, z: 3.4811392}
  m_Children: []
  m_Father: {fileID: 960885651}
  m_RootOrder: 6
  m_LocalEulerAnglesHint: {x: 0, y: 0, z: 0}
--- !u!1001 &1313315438
Prefab:
  m_ObjectHideFlags: 0
  serializedVersion: 2
  m_Modification:
    m_TransformParent: {fileID: 960885651}
    m_Modifications:
    - target: {fileID: 400002, guid: edc40406f07f9cf4990807aa8b0fc368, type: 3}
      propertyPath: m_LocalPosition.x
      value: -0.005
      objectReference: {fileID: 0}
    - target: {fileID: 400002, guid: edc40406f07f9cf4990807aa8b0fc368, type: 3}
      propertyPath: m_LocalPosition.y
      value: 0.04857417
      objectReference: {fileID: 0}
    - target: {fileID: 400002, guid: edc40406f07f9cf4990807aa8b0fc368, type: 3}
      propertyPath: m_LocalPosition.z
      value: -0.005
      objectReference: {fileID: 0}
    - target: {fileID: 400002, guid: edc40406f07f9cf4990807aa8b0fc368, type: 3}
      propertyPath: m_LocalRotation.x
      value: -0.7071068
      objectReference: {fileID: 0}
    - target: {fileID: 400002, guid: edc40406f07f9cf4990807aa8b0fc368, type: 3}
      propertyPath: m_LocalRotation.y
      value: 0
      objectReference: {fileID: 0}
    - target: {fileID: 400002, guid: edc40406f07f9cf4990807aa8b0fc368, type: 3}
      propertyPath: m_LocalRotation.z
      value: -0
      objectReference: {fileID: 0}
    - target: {fileID: 400002, guid: edc40406f07f9cf4990807aa8b0fc368, type: 3}
      propertyPath: m_LocalRotation.w
      value: 0.7071068
      objectReference: {fileID: 0}
    - target: {fileID: 400002, guid: edc40406f07f9cf4990807aa8b0fc368, type: 3}
      propertyPath: m_RootOrder
      value: 2
      objectReference: {fileID: 0}
    - target: {fileID: 400000, guid: edc40406f07f9cf4990807aa8b0fc368, type: 3}
      propertyPath: m_RootOrder
      value: 5
      objectReference: {fileID: 0}
    - target: {fileID: 400000, guid: edc40406f07f9cf4990807aa8b0fc368, type: 3}
      propertyPath: m_LocalScale.x
      value: 3.0789514
      objectReference: {fileID: 0}
    - target: {fileID: 400000, guid: edc40406f07f9cf4990807aa8b0fc368, type: 3}
      propertyPath: m_LocalScale.y
      value: 3.078954
      objectReference: {fileID: 0}
    - target: {fileID: 400000, guid: edc40406f07f9cf4990807aa8b0fc368, type: 3}
      propertyPath: m_LocalScale.z
      value: 3.4811392
      objectReference: {fileID: 0}
    - target: {fileID: 100000, guid: edc40406f07f9cf4990807aa8b0fc368, type: 3}
      propertyPath: m_Name
      value: mountain_Snow_000 (6)
      objectReference: {fileID: 0}
    - target: {fileID: 400000, guid: edc40406f07f9cf4990807aa8b0fc368, type: 3}
      propertyPath: m_LocalPosition.z
      value: 57.4
      objectReference: {fileID: 0}
    - target: {fileID: 400000, guid: edc40406f07f9cf4990807aa8b0fc368, type: 3}
      propertyPath: m_LocalRotation.y
      value: -0.8699443
      objectReference: {fileID: 0}
    - target: {fileID: 400000, guid: edc40406f07f9cf4990807aa8b0fc368, type: 3}
      propertyPath: m_LocalRotation.w
      value: 0.49315006
      objectReference: {fileID: 0}
    - target: {fileID: 400000, guid: edc40406f07f9cf4990807aa8b0fc368, type: 3}
      propertyPath: m_LocalPosition.x
      value: -17.7
      objectReference: {fileID: 0}
    - target: {fileID: 400000, guid: edc40406f07f9cf4990807aa8b0fc368, type: 3}
      propertyPath: m_LocalPosition.y
      value: -5.5
      objectReference: {fileID: 0}
    - target: {fileID: 2300000, guid: edc40406f07f9cf4990807aa8b0fc368, type: 3}
      propertyPath: m_Materials.Array.data[0]
      value: 
      objectReference: {fileID: 2100000, guid: 0060a88cd6252a146aeb6a9652d03869, type: 2}
    m_RemovedComponents: []
  m_ParentPrefab: {fileID: 100100000, guid: edc40406f07f9cf4990807aa8b0fc368, type: 3}
  m_RootGameObject: {fileID: 819410391}
  m_IsPrefabParent: 0
--- !u!4 &1313315439
Transform:
  m_ObjectHideFlags: 0
  m_PrefabParentObject: {fileID: 400000, guid: edc40406f07f9cf4990807aa8b0fc368, type: 3}
  m_PrefabInternal: {fileID: 1313315438}
  m_GameObject: {fileID: 819410391}
  m_LocalRotation: {x: 0, y: -0.8699443, z: -0, w: 0.49315006}
  m_LocalPosition: {x: -17.7, y: -5.5, z: 57.4}
  m_LocalScale: {x: 3.0789514, y: 3.078954, z: 3.4811392}
  m_Children: []
  m_Father: {fileID: 960885651}
  m_RootOrder: 5
  m_LocalEulerAnglesHint: {x: 0, y: 0, z: 0}
--- !u!1 &1448161466
GameObject:
  m_ObjectHideFlags: 0
  m_PrefabParentObject: {fileID: 100000, guid: edc40406f07f9cf4990807aa8b0fc368, type: 3}
  m_PrefabInternal: {fileID: 1269988726}
  serializedVersion: 5
  m_Component:
  - component: {fileID: 1269988727}
  - component: {fileID: 1448161468}
  - component: {fileID: 1448161467}
  m_Layer: 0
  m_Name: mountain_Snow_000 (8)
  m_TagString: Untagged
  m_Icon: {fileID: 0}
  m_NavMeshLayer: 0
  m_StaticEditorFlags: 0
  m_IsActive: 1
--- !u!23 &1448161467
MeshRenderer:
  m_ObjectHideFlags: 0
  m_PrefabParentObject: {fileID: 2300000, guid: edc40406f07f9cf4990807aa8b0fc368,
    type: 3}
  m_PrefabInternal: {fileID: 1269988726}
  m_GameObject: {fileID: 1448161466}
  m_Enabled: 1
  m_CastShadows: 1
  m_ReceiveShadows: 1
  m_DynamicOccludee: 1
  m_MotionVectors: 1
  m_LightProbeUsage: 1
  m_ReflectionProbeUsage: 1
  m_Materials:
  - {fileID: 2100000, guid: 0060a88cd6252a146aeb6a9652d03869, type: 2}
  m_StaticBatchInfo:
    firstSubMesh: 0
    subMeshCount: 0
  m_StaticBatchRoot: {fileID: 0}
  m_ProbeAnchor: {fileID: 0}
  m_LightProbeVolumeOverride: {fileID: 0}
  m_ScaleInLightmap: 1
  m_PreserveUVs: 0
  m_IgnoreNormalsForChartDetection: 0
  m_ImportantGI: 0
  m_StitchLightmapSeams: 0
  m_SelectedEditorRenderState: 3
  m_MinimumChartSize: 4
  m_AutoUVMaxDistance: 0.5
  m_AutoUVMaxAngle: 89
  m_LightmapParameters: {fileID: 0}
  m_SortingLayerID: 0
  m_SortingLayer: 0
  m_SortingOrder: 0
--- !u!33 &1448161468
MeshFilter:
  m_ObjectHideFlags: 0
  m_PrefabParentObject: {fileID: 3300000, guid: edc40406f07f9cf4990807aa8b0fc368,
    type: 3}
  m_PrefabInternal: {fileID: 1269988726}
  m_GameObject: {fileID: 1448161466}
  m_Mesh: {fileID: 4300000, guid: edc40406f07f9cf4990807aa8b0fc368, type: 3}
--- !u!1 &1473312770
GameObject:
  m_ObjectHideFlags: 0
  m_PrefabParentObject: {fileID: 100000, guid: edc40406f07f9cf4990807aa8b0fc368, type: 3}
  m_PrefabInternal: {fileID: 511012923}
  serializedVersion: 5
  m_Component:
  - component: {fileID: 511012924}
  - component: {fileID: 1473312772}
  - component: {fileID: 1473312771}
  m_Layer: 0
  m_Name: mountain_Snow_000 (5)
  m_TagString: Untagged
  m_Icon: {fileID: 0}
  m_NavMeshLayer: 0
  m_StaticEditorFlags: 0
  m_IsActive: 1
--- !u!23 &1473312771
MeshRenderer:
  m_ObjectHideFlags: 0
  m_PrefabParentObject: {fileID: 2300000, guid: edc40406f07f9cf4990807aa8b0fc368,
    type: 3}
  m_PrefabInternal: {fileID: 511012923}
  m_GameObject: {fileID: 1473312770}
  m_Enabled: 1
  m_CastShadows: 1
  m_ReceiveShadows: 1
  m_DynamicOccludee: 1
  m_MotionVectors: 1
  m_LightProbeUsage: 1
  m_ReflectionProbeUsage: 1
  m_Materials:
  - {fileID: 2100000, guid: 0060a88cd6252a146aeb6a9652d03869, type: 2}
  m_StaticBatchInfo:
    firstSubMesh: 0
    subMeshCount: 0
  m_StaticBatchRoot: {fileID: 0}
  m_ProbeAnchor: {fileID: 0}
  m_LightProbeVolumeOverride: {fileID: 0}
  m_ScaleInLightmap: 1
  m_PreserveUVs: 0
  m_IgnoreNormalsForChartDetection: 0
  m_ImportantGI: 0
  m_StitchLightmapSeams: 0
  m_SelectedEditorRenderState: 3
  m_MinimumChartSize: 4
  m_AutoUVMaxDistance: 0.5
  m_AutoUVMaxAngle: 89
  m_LightmapParameters: {fileID: 0}
  m_SortingLayerID: 0
  m_SortingLayer: 0
  m_SortingOrder: 0
--- !u!33 &1473312772
MeshFilter:
  m_ObjectHideFlags: 0
  m_PrefabParentObject: {fileID: 3300000, guid: edc40406f07f9cf4990807aa8b0fc368,
    type: 3}
  m_PrefabInternal: {fileID: 511012923}
  m_GameObject: {fileID: 1473312770}
  m_Mesh: {fileID: 4300000, guid: edc40406f07f9cf4990807aa8b0fc368, type: 3}
--- !u!1001 &1482819116
Prefab:
  m_ObjectHideFlags: 0
  serializedVersion: 2
  m_Modification:
    m_TransformParent: {fileID: 960885651}
    m_Modifications:
    - target: {fileID: 400002, guid: edc40406f07f9cf4990807aa8b0fc368, type: 3}
      propertyPath: m_LocalPosition.x
      value: -0.005
      objectReference: {fileID: 0}
    - target: {fileID: 400002, guid: edc40406f07f9cf4990807aa8b0fc368, type: 3}
      propertyPath: m_LocalPosition.y
      value: 0.04857417
      objectReference: {fileID: 0}
    - target: {fileID: 400002, guid: edc40406f07f9cf4990807aa8b0fc368, type: 3}
      propertyPath: m_LocalPosition.z
      value: -0.005
      objectReference: {fileID: 0}
    - target: {fileID: 400002, guid: edc40406f07f9cf4990807aa8b0fc368, type: 3}
      propertyPath: m_LocalRotation.x
      value: -0.7071068
      objectReference: {fileID: 0}
    - target: {fileID: 400002, guid: edc40406f07f9cf4990807aa8b0fc368, type: 3}
      propertyPath: m_LocalRotation.y
      value: 0
      objectReference: {fileID: 0}
    - target: {fileID: 400002, guid: edc40406f07f9cf4990807aa8b0fc368, type: 3}
      propertyPath: m_LocalRotation.z
      value: -0
      objectReference: {fileID: 0}
    - target: {fileID: 400002, guid: edc40406f07f9cf4990807aa8b0fc368, type: 3}
      propertyPath: m_LocalRotation.w
      value: 0.7071068
      objectReference: {fileID: 0}
    - target: {fileID: 400002, guid: edc40406f07f9cf4990807aa8b0fc368, type: 3}
      propertyPath: m_RootOrder
      value: 2
      objectReference: {fileID: 0}
    - target: {fileID: 400000, guid: edc40406f07f9cf4990807aa8b0fc368, type: 3}
      propertyPath: m_RootOrder
      value: 4
      objectReference: {fileID: 0}
    - target: {fileID: 400000, guid: edc40406f07f9cf4990807aa8b0fc368, type: 3}
      propertyPath: m_LocalScale.x
      value: 1.8401527
      objectReference: {fileID: 0}
    - target: {fileID: 400000, guid: edc40406f07f9cf4990807aa8b0fc368, type: 3}
      propertyPath: m_LocalScale.y
      value: 1.4108094
      objectReference: {fileID: 0}
    - target: {fileID: 400000, guid: edc40406f07f9cf4990807aa8b0fc368, type: 3}
      propertyPath: m_LocalScale.z
      value: 3.7966878
      objectReference: {fileID: 0}
    - target: {fileID: 100000, guid: edc40406f07f9cf4990807aa8b0fc368, type: 3}
      propertyPath: m_Name
      value: mountain_Snow_000 (4)
      objectReference: {fileID: 0}
    - target: {fileID: 400000, guid: edc40406f07f9cf4990807aa8b0fc368, type: 3}
      propertyPath: m_LocalPosition.z
      value: 48.785336
      objectReference: {fileID: 0}
    - target: {fileID: 400000, guid: edc40406f07f9cf4990807aa8b0fc368, type: 3}
      propertyPath: m_LocalRotation.y
      value: 0.8434201
      objectReference: {fileID: 0}
    - target: {fileID: 400000, guid: edc40406f07f9cf4990807aa8b0fc368, type: 3}
      propertyPath: m_LocalRotation.w
      value: -0.53725463
      objectReference: {fileID: 0}
    - target: {fileID: 400000, guid: edc40406f07f9cf4990807aa8b0fc368, type: 3}
      propertyPath: m_LocalPosition.x
      value: 14.896818
      objectReference: {fileID: 0}
    - target: {fileID: 400000, guid: edc40406f07f9cf4990807aa8b0fc368, type: 3}
      propertyPath: m_LocalPosition.y
      value: -6
      objectReference: {fileID: 0}
    - target: {fileID: 2300000, guid: edc40406f07f9cf4990807aa8b0fc368, type: 3}
      propertyPath: m_Materials.Array.data[0]
      value: 
      objectReference: {fileID: 2100000, guid: 0060a88cd6252a146aeb6a9652d03869, type: 2}
    m_RemovedComponents: []
  m_ParentPrefab: {fileID: 100100000, guid: edc40406f07f9cf4990807aa8b0fc368, type: 3}
  m_RootGameObject: {fileID: 1556085417}
  m_IsPrefabParent: 0
--- !u!4 &1482819117
Transform:
  m_ObjectHideFlags: 0
  m_PrefabParentObject: {fileID: 400000, guid: edc40406f07f9cf4990807aa8b0fc368, type: 3}
  m_PrefabInternal: {fileID: 1482819116}
  m_GameObject: {fileID: 1556085417}
  m_LocalRotation: {x: 0, y: 0.8434201, z: -0, w: -0.53725463}
  m_LocalPosition: {x: 14.896818, y: -6, z: 48.785336}
  m_LocalScale: {x: 1.8401527, y: 1.4108094, z: 3.7966878}
  m_Children: []
  m_Father: {fileID: 960885651}
  m_RootOrder: 4
  m_LocalEulerAnglesHint: {x: 0, y: 0, z: 0}
--- !u!1 &1556085417
GameObject:
  m_ObjectHideFlags: 0
  m_PrefabParentObject: {fileID: 100000, guid: edc40406f07f9cf4990807aa8b0fc368, type: 3}
  m_PrefabInternal: {fileID: 1482819116}
  serializedVersion: 5
  m_Component:
  - component: {fileID: 1482819117}
  - component: {fileID: 1556085419}
  - component: {fileID: 1556085418}
  m_Layer: 0
  m_Name: mountain_Snow_000 (4)
  m_TagString: Untagged
  m_Icon: {fileID: 0}
  m_NavMeshLayer: 0
  m_StaticEditorFlags: 0
  m_IsActive: 1
--- !u!23 &1556085418
MeshRenderer:
  m_ObjectHideFlags: 0
  m_PrefabParentObject: {fileID: 2300000, guid: edc40406f07f9cf4990807aa8b0fc368,
    type: 3}
  m_PrefabInternal: {fileID: 1482819116}
  m_GameObject: {fileID: 1556085417}
  m_Enabled: 1
  m_CastShadows: 1
  m_ReceiveShadows: 1
  m_DynamicOccludee: 1
  m_MotionVectors: 1
  m_LightProbeUsage: 1
  m_ReflectionProbeUsage: 1
  m_Materials:
  - {fileID: 2100000, guid: 0060a88cd6252a146aeb6a9652d03869, type: 2}
  m_StaticBatchInfo:
    firstSubMesh: 0
    subMeshCount: 0
  m_StaticBatchRoot: {fileID: 0}
  m_ProbeAnchor: {fileID: 0}
  m_LightProbeVolumeOverride: {fileID: 0}
  m_ScaleInLightmap: 1
  m_PreserveUVs: 0
  m_IgnoreNormalsForChartDetection: 0
  m_ImportantGI: 0
  m_StitchLightmapSeams: 0
  m_SelectedEditorRenderState: 3
  m_MinimumChartSize: 4
  m_AutoUVMaxDistance: 0.5
  m_AutoUVMaxAngle: 89
  m_LightmapParameters: {fileID: 0}
  m_SortingLayerID: 0
  m_SortingLayer: 0
  m_SortingOrder: 0
--- !u!33 &1556085419
MeshFilter:
  m_ObjectHideFlags: 0
  m_PrefabParentObject: {fileID: 3300000, guid: edc40406f07f9cf4990807aa8b0fc368,
    type: 3}
  m_PrefabInternal: {fileID: 1482819116}
  m_GameObject: {fileID: 1556085417}
  m_Mesh: {fileID: 4300000, guid: edc40406f07f9cf4990807aa8b0fc368, type: 3}
--- !u!1 &1910428144
GameObject:
  m_ObjectHideFlags: 0
  m_PrefabParentObject: {fileID: 0}
  m_PrefabInternal: {fileID: 0}
  serializedVersion: 5
  m_Component:
  - component: {fileID: 1910428148}
  - component: {fileID: 1910428147}
  - component: {fileID: 1910428146}
  - component: {fileID: 1910428145}
  m_Layer: 0
  m_Name: Plane
  m_TagString: Untagged
  m_Icon: {fileID: 0}
  m_NavMeshLayer: 0
  m_StaticEditorFlags: 0
  m_IsActive: 1
--- !u!23 &1910428145
MeshRenderer:
  m_ObjectHideFlags: 0
  m_PrefabParentObject: {fileID: 0}
  m_PrefabInternal: {fileID: 0}
  m_GameObject: {fileID: 1910428144}
  m_Enabled: 1
  m_CastShadows: 1
  m_ReceiveShadows: 1
  m_DynamicOccludee: 1
  m_MotionVectors: 1
  m_LightProbeUsage: 1
  m_ReflectionProbeUsage: 1
  m_Materials:
  - {fileID: 2100000, guid: 0b4d14158efca2b4aa691b18b8a58e67, type: 2}
  m_StaticBatchInfo:
    firstSubMesh: 0
    subMeshCount: 0
  m_StaticBatchRoot: {fileID: 0}
  m_ProbeAnchor: {fileID: 0}
  m_LightProbeVolumeOverride: {fileID: 0}
  m_ScaleInLightmap: 1
  m_PreserveUVs: 1
  m_IgnoreNormalsForChartDetection: 0
  m_ImportantGI: 0
  m_StitchLightmapSeams: 0
  m_SelectedEditorRenderState: 3
  m_MinimumChartSize: 4
  m_AutoUVMaxDistance: 0.5
  m_AutoUVMaxAngle: 89
  m_LightmapParameters: {fileID: 0}
  m_SortingLayerID: 0
  m_SortingLayer: 0
  m_SortingOrder: 0
--- !u!64 &1910428146
MeshCollider:
  m_ObjectHideFlags: 0
  m_PrefabParentObject: {fileID: 0}
  m_PrefabInternal: {fileID: 0}
  m_GameObject: {fileID: 1910428144}
  m_Material: {fileID: 0}
  m_IsTrigger: 0
  m_Enabled: 1
  serializedVersion: 2
  m_Convex: 0
  m_InflateMesh: 0
  m_SkinWidth: 0.01
  m_Mesh: {fileID: 10209, guid: 0000000000000000e000000000000000, type: 0}
--- !u!33 &1910428147
MeshFilter:
  m_ObjectHideFlags: 0
  m_PrefabParentObject: {fileID: 0}
  m_PrefabInternal: {fileID: 0}
  m_GameObject: {fileID: 1910428144}
  m_Mesh: {fileID: 10209, guid: 0000000000000000e000000000000000, type: 0}
--- !u!4 &1910428148
Transform:
  m_ObjectHideFlags: 0
  m_PrefabParentObject: {fileID: 0}
  m_PrefabInternal: {fileID: 0}
  m_GameObject: {fileID: 1910428144}
  m_LocalRotation: {x: 0, y: 0, z: 0, w: 1}
  m_LocalPosition: {x: -58.7, y: 0.5, z: 75.9}
  m_LocalScale: {x: 54.2766, y: 54.276596, z: 54.276596}
  m_Children: []
  m_Father: {fileID: 0}
  m_RootOrder: 2
  m_LocalEulerAnglesHint: {x: 0, y: 0, z: 0}
--- !u!1 &1956195978
GameObject:
  m_ObjectHideFlags: 0
  m_PrefabParentObject: {fileID: 100000, guid: edc40406f07f9cf4990807aa8b0fc368, type: 3}
  m_PrefabInternal: {fileID: 2121501754}
  serializedVersion: 5
  m_Component:
  - component: {fileID: 2121501755}
  - component: {fileID: 1956195980}
  - component: {fileID: 1956195979}
  m_Layer: 0
  m_Name: mountain_Snow_000 (9)
  m_TagString: Untagged
  m_Icon: {fileID: 0}
  m_NavMeshLayer: 0
  m_StaticEditorFlags: 0
  m_IsActive: 1
--- !u!23 &1956195979
MeshRenderer:
  m_ObjectHideFlags: 0
  m_PrefabParentObject: {fileID: 2300000, guid: edc40406f07f9cf4990807aa8b0fc368,
    type: 3}
  m_PrefabInternal: {fileID: 2121501754}
  m_GameObject: {fileID: 1956195978}
  m_Enabled: 1
  m_CastShadows: 1
  m_ReceiveShadows: 1
  m_DynamicOccludee: 1
  m_MotionVectors: 1
  m_LightProbeUsage: 1
  m_ReflectionProbeUsage: 1
  m_Materials:
  - {fileID: 2100000, guid: 0060a88cd6252a146aeb6a9652d03869, type: 2}
  m_StaticBatchInfo:
    firstSubMesh: 0
    subMeshCount: 0
  m_StaticBatchRoot: {fileID: 0}
  m_ProbeAnchor: {fileID: 0}
  m_LightProbeVolumeOverride: {fileID: 0}
  m_ScaleInLightmap: 1
  m_PreserveUVs: 0
  m_IgnoreNormalsForChartDetection: 0
  m_ImportantGI: 0
  m_StitchLightmapSeams: 0
  m_SelectedEditorRenderState: 3
  m_MinimumChartSize: 4
  m_AutoUVMaxDistance: 0.5
  m_AutoUVMaxAngle: 89
  m_LightmapParameters: {fileID: 0}
  m_SortingLayerID: 0
  m_SortingLayer: 0
  m_SortingOrder: 0
--- !u!33 &1956195980
MeshFilter:
  m_ObjectHideFlags: 0
  m_PrefabParentObject: {fileID: 3300000, guid: edc40406f07f9cf4990807aa8b0fc368,
    type: 3}
  m_PrefabInternal: {fileID: 2121501754}
  m_GameObject: {fileID: 1956195978}
  m_Mesh: {fileID: 4300000, guid: edc40406f07f9cf4990807aa8b0fc368, type: 3}
--- !u!1 &2112476525
GameObject:
  m_ObjectHideFlags: 0
  m_PrefabParentObject: {fileID: 100000, guid: edc40406f07f9cf4990807aa8b0fc368, type: 3}
  m_PrefabInternal: {fileID: 373689373}
  serializedVersion: 5
  m_Component:
  - component: {fileID: 373689374}
  - component: {fileID: 2112476527}
  - component: {fileID: 2112476526}
  m_Layer: 0
  m_Name: mountain_Snow_000 (7)
  m_TagString: Untagged
  m_Icon: {fileID: 0}
  m_NavMeshLayer: 0
  m_StaticEditorFlags: 0
  m_IsActive: 1
--- !u!23 &2112476526
MeshRenderer:
  m_ObjectHideFlags: 0
  m_PrefabParentObject: {fileID: 2300000, guid: edc40406f07f9cf4990807aa8b0fc368,
    type: 3}
  m_PrefabInternal: {fileID: 373689373}
  m_GameObject: {fileID: 2112476525}
  m_Enabled: 1
  m_CastShadows: 1
  m_ReceiveShadows: 1
  m_DynamicOccludee: 1
  m_MotionVectors: 1
  m_LightProbeUsage: 1
  m_ReflectionProbeUsage: 1
  m_Materials:
  - {fileID: 2100000, guid: 0060a88cd6252a146aeb6a9652d03869, type: 2}
  m_StaticBatchInfo:
    firstSubMesh: 0
    subMeshCount: 0
  m_StaticBatchRoot: {fileID: 0}
  m_ProbeAnchor: {fileID: 0}
  m_LightProbeVolumeOverride: {fileID: 0}
  m_ScaleInLightmap: 1
  m_PreserveUVs: 0
  m_IgnoreNormalsForChartDetection: 0
  m_ImportantGI: 0
  m_StitchLightmapSeams: 0
  m_SelectedEditorRenderState: 3
  m_MinimumChartSize: 4
  m_AutoUVMaxDistance: 0.5
  m_AutoUVMaxAngle: 89
  m_LightmapParameters: {fileID: 0}
  m_SortingLayerID: 0
  m_SortingLayer: 0
  m_SortingOrder: 0
--- !u!33 &2112476527
MeshFilter:
  m_ObjectHideFlags: 0
  m_PrefabParentObject: {fileID: 3300000, guid: edc40406f07f9cf4990807aa8b0fc368,
    type: 3}
  m_PrefabInternal: {fileID: 373689373}
  m_GameObject: {fileID: 2112476525}
  m_Mesh: {fileID: 4300000, guid: edc40406f07f9cf4990807aa8b0fc368, type: 3}
--- !u!1001 &2120409049
Prefab:
  m_ObjectHideFlags: 0
  serializedVersion: 2
  m_Modification:
    m_TransformParent: {fileID: 960885651}
    m_Modifications:
    - target: {fileID: 400002, guid: edc40406f07f9cf4990807aa8b0fc368, type: 3}
      propertyPath: m_LocalPosition.x
      value: -0.005
      objectReference: {fileID: 0}
    - target: {fileID: 400002, guid: edc40406f07f9cf4990807aa8b0fc368, type: 3}
      propertyPath: m_LocalPosition.y
      value: 0.04857417
      objectReference: {fileID: 0}
    - target: {fileID: 400002, guid: edc40406f07f9cf4990807aa8b0fc368, type: 3}
      propertyPath: m_LocalPosition.z
      value: -0.005
      objectReference: {fileID: 0}
    - target: {fileID: 400002, guid: edc40406f07f9cf4990807aa8b0fc368, type: 3}
      propertyPath: m_LocalRotation.x
      value: -0.7071068
      objectReference: {fileID: 0}
    - target: {fileID: 400002, guid: edc40406f07f9cf4990807aa8b0fc368, type: 3}
      propertyPath: m_LocalRotation.y
      value: 0
      objectReference: {fileID: 0}
    - target: {fileID: 400002, guid: edc40406f07f9cf4990807aa8b0fc368, type: 3}
      propertyPath: m_LocalRotation.z
      value: -0
      objectReference: {fileID: 0}
    - target: {fileID: 400002, guid: edc40406f07f9cf4990807aa8b0fc368, type: 3}
      propertyPath: m_LocalRotation.w
      value: 0.7071068
      objectReference: {fileID: 0}
    - target: {fileID: 400002, guid: edc40406f07f9cf4990807aa8b0fc368, type: 3}
      propertyPath: m_RootOrder
      value: 2
      objectReference: {fileID: 0}
    - target: {fileID: 400000, guid: edc40406f07f9cf4990807aa8b0fc368, type: 3}
      propertyPath: m_RootOrder
      value: 3
      objectReference: {fileID: 0}
    - target: {fileID: 400000, guid: edc40406f07f9cf4990807aa8b0fc368, type: 3}
      propertyPath: m_LocalScale.x
      value: 1.8401526
      objectReference: {fileID: 0}
    - target: {fileID: 400000, guid: edc40406f07f9cf4990807aa8b0fc368, type: 3}
      propertyPath: m_LocalScale.y
      value: 1.4108094
      objectReference: {fileID: 0}
    - target: {fileID: 400000, guid: edc40406f07f9cf4990807aa8b0fc368, type: 3}
      propertyPath: m_LocalScale.z
      value: 3.796688
      objectReference: {fileID: 0}
    - target: {fileID: 100000, guid: edc40406f07f9cf4990807aa8b0fc368, type: 3}
      propertyPath: m_Name
      value: mountain_Snow_000 (3)
      objectReference: {fileID: 0}
    - target: {fileID: 400000, guid: edc40406f07f9cf4990807aa8b0fc368, type: 3}
      propertyPath: m_LocalPosition.z
      value: 37.4
      objectReference: {fileID: 0}
    - target: {fileID: 400000, guid: edc40406f07f9cf4990807aa8b0fc368, type: 3}
      propertyPath: m_LocalRotation.y
      value: 0.8288424
      objectReference: {fileID: 0}
    - target: {fileID: 400000, guid: edc40406f07f9cf4990807aa8b0fc368, type: 3}
      propertyPath: m_LocalRotation.w
      value: 0.5594822
      objectReference: {fileID: 0}
    - target: {fileID: 400000, guid: edc40406f07f9cf4990807aa8b0fc368, type: 3}
      propertyPath: m_LocalPosition.x
      value: -87.3
      objectReference: {fileID: 0}
    - target: {fileID: 400000, guid: edc40406f07f9cf4990807aa8b0fc368, type: 3}
      propertyPath: m_LocalPosition.y
      value: -4.5
      objectReference: {fileID: 0}
    - target: {fileID: 2300000, guid: edc40406f07f9cf4990807aa8b0fc368, type: 3}
      propertyPath: m_Materials.Array.data[0]
      value: 
      objectReference: {fileID: 2100000, guid: 0060a88cd6252a146aeb6a9652d03869, type: 2}
    m_RemovedComponents: []
  m_ParentPrefab: {fileID: 100100000, guid: edc40406f07f9cf4990807aa8b0fc368, type: 3}
  m_RootGameObject: {fileID: 576906619}
  m_IsPrefabParent: 0
--- !u!4 &2120409050
Transform:
  m_ObjectHideFlags: 0
  m_PrefabParentObject: {fileID: 400000, guid: edc40406f07f9cf4990807aa8b0fc368, type: 3}
  m_PrefabInternal: {fileID: 2120409049}
  m_GameObject: {fileID: 576906619}
  m_LocalRotation: {x: 0, y: 0.8288424, z: -0, w: 0.5594822}
  m_LocalPosition: {x: -87.3, y: -4.5, z: 37.4}
  m_LocalScale: {x: 1.8401526, y: 1.4108094, z: 3.796688}
  m_Children: []
  m_Father: {fileID: 960885651}
  m_RootOrder: 3
  m_LocalEulerAnglesHint: {x: 0, y: 0, z: 0}
--- !u!1001 &2121501754
Prefab:
  m_ObjectHideFlags: 0
  serializedVersion: 2
  m_Modification:
    m_TransformParent: {fileID: 960885651}
    m_Modifications:
    - target: {fileID: 400002, guid: edc40406f07f9cf4990807aa8b0fc368, type: 3}
      propertyPath: m_LocalPosition.x
      value: -0.005
      objectReference: {fileID: 0}
    - target: {fileID: 400002, guid: edc40406f07f9cf4990807aa8b0fc368, type: 3}
      propertyPath: m_LocalPosition.y
      value: 0.04857417
      objectReference: {fileID: 0}
    - target: {fileID: 400002, guid: edc40406f07f9cf4990807aa8b0fc368, type: 3}
      propertyPath: m_LocalPosition.z
      value: -0.005
      objectReference: {fileID: 0}
    - target: {fileID: 400002, guid: edc40406f07f9cf4990807aa8b0fc368, type: 3}
      propertyPath: m_LocalRotation.x
      value: -0.7071068
      objectReference: {fileID: 0}
    - target: {fileID: 400002, guid: edc40406f07f9cf4990807aa8b0fc368, type: 3}
      propertyPath: m_LocalRotation.y
      value: 0
      objectReference: {fileID: 0}
    - target: {fileID: 400002, guid: edc40406f07f9cf4990807aa8b0fc368, type: 3}
      propertyPath: m_LocalRotation.z
      value: -0
      objectReference: {fileID: 0}
    - target: {fileID: 400002, guid: edc40406f07f9cf4990807aa8b0fc368, type: 3}
      propertyPath: m_LocalRotation.w
      value: 0.7071068
      objectReference: {fileID: 0}
    - target: {fileID: 400002, guid: edc40406f07f9cf4990807aa8b0fc368, type: 3}
      propertyPath: m_RootOrder
      value: 2
      objectReference: {fileID: 0}
    - target: {fileID: 400000, guid: edc40406f07f9cf4990807aa8b0fc368, type: 3}
      propertyPath: m_RootOrder
      value: 1
      objectReference: {fileID: 0}
    - target: {fileID: 400000, guid: edc40406f07f9cf4990807aa8b0fc368, type: 3}
      propertyPath: m_LocalScale.x
      value: 3.3494425
      objectReference: {fileID: 0}
    - target: {fileID: 400000, guid: edc40406f07f9cf4990807aa8b0fc368, type: 3}
      propertyPath: m_LocalScale.y
      value: 2.5720463
      objectReference: {fileID: 0}
    - target: {fileID: 400000, guid: edc40406f07f9cf4990807aa8b0fc368, type: 3}
      propertyPath: m_LocalScale.z
      value: 3.786964
      objectReference: {fileID: 0}
    - target: {fileID: 100000, guid: edc40406f07f9cf4990807aa8b0fc368, type: 3}
      propertyPath: m_Name
      value: mountain_Snow_000 (9)
      objectReference: {fileID: 0}
    - target: {fileID: 400000, guid: edc40406f07f9cf4990807aa8b0fc368, type: 3}
      propertyPath: m_LocalPosition.z
      value: 45.7
      objectReference: {fileID: 0}
    - target: {fileID: 400000, guid: edc40406f07f9cf4990807aa8b0fc368, type: 3}
      propertyPath: m_LocalRotation.y
      value: -0.051712263
      objectReference: {fileID: 0}
    - target: {fileID: 400000, guid: edc40406f07f9cf4990807aa8b0fc368, type: 3}
      propertyPath: m_LocalRotation.w
      value: 0.99866205
      objectReference: {fileID: 0}
    - target: {fileID: 400000, guid: edc40406f07f9cf4990807aa8b0fc368, type: 3}
      propertyPath: m_LocalPosition.x
      value: -48.3
      objectReference: {fileID: 0}
    - target: {fileID: 400000, guid: edc40406f07f9cf4990807aa8b0fc368, type: 3}
      propertyPath: m_LocalPosition.y
      value: -5.5
      objectReference: {fileID: 0}
    - target: {fileID: 2300000, guid: edc40406f07f9cf4990807aa8b0fc368, type: 3}
      propertyPath: m_Materials.Array.data[0]
      value: 
      objectReference: {fileID: 2100000, guid: 0060a88cd6252a146aeb6a9652d03869, type: 2}
    m_RemovedComponents: []
  m_ParentPrefab: {fileID: 100100000, guid: edc40406f07f9cf4990807aa8b0fc368, type: 3}
  m_RootGameObject: {fileID: 1956195978}
  m_IsPrefabParent: 0
--- !u!4 &2121501755
Transform:
  m_ObjectHideFlags: 0
  m_PrefabParentObject: {fileID: 400000, guid: edc40406f07f9cf4990807aa8b0fc368, type: 3}
  m_PrefabInternal: {fileID: 2121501754}
  m_GameObject: {fileID: 1956195978}
  m_LocalRotation: {x: 0, y: -0.051712263, z: -0, w: 0.99866205}
  m_LocalPosition: {x: -48.3, y: -5.5, z: 45.7}
  m_LocalScale: {x: 3.3494425, y: 2.5720463, z: 3.786964}
  m_Children: []
  m_Father: {fileID: 960885651}
  m_RootOrder: 1
  m_LocalEulerAnglesHint: {x: 0, y: 0, z: 0}
